CaseStudy-1
…
Guiding Questions

1) How should you organize your data to perform analysis on it? Since the data sources contain separate CSV files for all the years and their respective quarters, after downloading them, I combined them into a single data frame. This combination was possible because all the CSV files had the same number and type of variables.

Also I created new features using the existing ones. Check them below:

a) riding_time

clean_df <- new_binded_df_no_dups
clean_df <- clean_df %>% 
  mutate(riding_time = as.numeric(ended_at-started_at)/60)
clean_df

## # A tibble: 3,759,054 x 14
##    ride_id          rideable_type started_at          ended_at           
##    <chr>            <chr>         <dttm>              <dttm>             
##  1 0F3AE375DEC608D9 classic_bike  2021-05-02 08:21:19 2021-05-02 09:20:46
##  2 43E916C72D4C77B3 electric_bike 2021-05-01 22:15:55 2021-05-01 22:51:27
##  3 2AAB47362E76AC7F electric_bike 2021-05-31 00:50:15 2021-05-31 00:56:59
##  4 344011882FBBB8BD classic_bike  2021-05-31 07:35:08 2021-05-31 08:33:45
##  5 238E58CAB07FA2A8 electric_bike 2021-05-02 16:55:59 2021-05-02 16:57:10
##  6 BF99592737266B31 classic_bike  2021-05-07 06:03:21 2021-05-07 07:12:20
##  7 059C6EFD3DA52B3C classic_bike  2021-05-19 18:04:07 2021-05-19 18:51:41
##  8 F1FDE9F333E8A72F classic_bike  2021-05-30 16:41:27 2021-05-30 16:56:02
##  9 13576FA2EB822C12 classic_bike  2021-05-24 17:59:36 2021-05-24 18:01:07
## 10 033FBC7213DC960B classic_bike  2021-05-24 18:04:28 2021-05-24 18:36:39
## # ... with 3,759,044 more rows, and 10 more variables:
## #   start_station_name <chr>, start_station_id <chr>, end_station_name <chr>,
## #   end_station_id <chr>, start_lat <dbl>, start_lng <dbl>, end_lat <dbl>,
## #   end_lng <dbl>, member_casual <chr>, riding_time <dbl>

b) year_month

clean_df <- clean_df %>% 
  mutate(year_month=paste(strftime(clean_df$started_at, "%Y"), "-",
                          strftime(clean_df$started_at, "%m"), "-",
                          strftime(clean_df$started_at, "%b")))
clean_df

## # A tibble: 3,759,054 x 15
##    ride_id          rideable_type started_at          ended_at           
##    <chr>            <chr>         <dttm>              <dttm>             
##  1 0F3AE375DEC608D9 classic_bike  2021-05-02 08:21:19 2021-05-02 09:20:46
##  2 43E916C72D4C77B3 electric_bike 2021-05-01 22:15:55 2021-05-01 22:51:27
##  3 2AAB47362E76AC7F electric_bike 2021-05-31 00:50:15 2021-05-31 00:56:59
##  4 344011882FBBB8BD classic_bike  2021-05-31 07:35:08 2021-05-31 08:33:45
##  5 238E58CAB07FA2A8 electric_bike 2021-05-02 16:55:59 2021-05-02 16:57:10
##  6 BF99592737266B31 classic_bike  2021-05-07 06:03:21 2021-05-07 07:12:20
##  7 059C6EFD3DA52B3C classic_bike  2021-05-19 18:04:07 2021-05-19 18:51:41
##  8 F1FDE9F333E8A72F classic_bike  2021-05-30 16:41:27 2021-05-30 16:56:02
##  9 13576FA2EB822C12 classic_bike  2021-05-24 17:59:36 2021-05-24 18:01:07
## 10 033FBC7213DC960B classic_bike  2021-05-24 18:04:28 2021-05-24 18:36:39
## # ... with 3,759,044 more rows, and 11 more variables:
## #   start_station_name <chr>, start_station_id <chr>, end_station_name <chr>,
## #   end_station_id <chr>, start_lat <dbl>, start_lng <dbl>, end_lat <dbl>,
## #   end_lng <dbl>, member_casual <chr>, riding_time <dbl>, year_month <chr>

Removing year_month with 2021 - 06 (Jun) values from the data frame as Junes month contains very few rows which are not helpful in our analysis.

clean_df <- filter(clean_df, year_month!="2021 - 06 (Jun)")
clean_df

## # A tibble: 3,759,054 x 15
##    ride_id          rideable_type started_at          ended_at           
##    <chr>            <chr>         <dttm>              <dttm>             
##  1 0F3AE375DEC608D9 classic_bike  2021-05-02 08:21:19 2021-05-02 09:20:46
##  2 43E916C72D4C77B3 electric_bike 2021-05-01 22:15:55 2021-05-01 22:51:27
##  3 2AAB47362E76AC7F electric_bike 2021-05-31 00:50:15 2021-05-31 00:56:59
##  4 344011882FBBB8BD classic_bike  2021-05-31 07:35:08 2021-05-31 08:33:45
##  5 238E58CAB07FA2A8 electric_bike 2021-05-02 16:55:59 2021-05-02 16:57:10
##  6 BF99592737266B31 classic_bike  2021-05-07 06:03:21 2021-05-07 07:12:20
##  7 059C6EFD3DA52B3C classic_bike  2021-05-19 18:04:07 2021-05-19 18:51:41
##  8 F1FDE9F333E8A72F classic_bike  2021-05-30 16:41:27 2021-05-30 16:56:02
##  9 13576FA2EB822C12 classic_bike  2021-05-24 17:59:36 2021-05-24 18:01:07
## 10 033FBC7213DC960B classic_bike  2021-05-24 18:04:28 2021-05-24 18:36:39
## # ... with 3,759,044 more rows, and 11 more variables:
## #   start_station_name <chr>, start_station_id <chr>, end_station_name <chr>,
## #   end_station_id <chr>, start_lat <dbl>, start_lng <dbl>, end_lat <dbl>,
## #   end_lng <dbl>, member_casual <chr>, riding_time <dbl>, year_month <chr>

c) Weekday

clean_df <- clean_df %>% 
  mutate(weekday=strftime(clean_df$ended_at, "%a"))
clean_df

## # A tibble: 3,759,054 x 16
##    ride_id          rideable_type started_at          ended_at           
##    <chr>            <chr>         <dttm>              <dttm>             
##  1 0F3AE375DEC608D9 classic_bike  2021-05-02 08:21:19 2021-05-02 09:20:46
##  2 43E916C72D4C77B3 electric_bike 2021-05-01 22:15:55 2021-05-01 22:51:27
##  3 2AAB47362E76AC7F electric_bike 2021-05-31 00:50:15 2021-05-31 00:56:59
##  4 344011882FBBB8BD classic_bike  2021-05-31 07:35:08 2021-05-31 08:33:45
##  5 238E58CAB07FA2A8 electric_bike 2021-05-02 16:55:59 2021-05-02 16:57:10
##  6 BF99592737266B31 classic_bike  2021-05-07 06:03:21 2021-05-07 07:12:20
##  7 059C6EFD3DA52B3C classic_bike  2021-05-19 18:04:07 2021-05-19 18:51:41
##  8 F1FDE9F333E8A72F classic_bike  2021-05-30 16:41:27 2021-05-30 16:56:02
##  9 13576FA2EB822C12 classic_bike  2021-05-24 17:59:36 2021-05-24 18:01:07
## 10 033FBC7213DC960B classic_bike  2021-05-24 18:04:28 2021-05-24 18:36:39
## # ... with 3,759,044 more rows, and 12 more variables:
## #   start_station_name <chr>, start_station_id <chr>, end_station_name <chr>,
## #   end_station_id <chr>, start_lat <dbl>, start_lng <dbl>, end_lat <dbl>,
## #   end_lng <dbl>, member_casual <chr>, riding_time <dbl>, year_month <chr>,
## #   weekday <chr>

d) start_hour

clean_df <- clean_df %>% 
  mutate(start_hour=strftime(clean_df$ended_at, format = "%H",tz = "UTC"))
clean_df

## # A tibble: 3,759,054 x 17
##    ride_id          rideable_type started_at          ended_at           
##    <chr>            <chr>         <dttm>              <dttm>             
##  1 0F3AE375DEC608D9 classic_bike  2021-05-02 08:21:19 2021-05-02 09:20:46
##  2 43E916C72D4C77B3 electric_bike 2021-05-01 22:15:55 2021-05-01 22:51:27
##  3 2AAB47362E76AC7F electric_bike 2021-05-31 00:50:15 2021-05-31 00:56:59
##  4 344011882FBBB8BD classic_bike  2021-05-31 07:35:08 2021-05-31 08:33:45
##  5 238E58CAB07FA2A8 electric_bike 2021-05-02 16:55:59 2021-05-02 16:57:10
##  6 BF99592737266B31 classic_bike  2021-05-07 06:03:21 2021-05-07 07:12:20
##  7 059C6EFD3DA52B3C classic_bike  2021-05-19 18:04:07 2021-05-19 18:51:41
##  8 F1FDE9F333E8A72F classic_bike  2021-05-30 16:41:27 2021-05-30 16:56:02
##  9 13576FA2EB822C12 classic_bike  2021-05-24 17:59:36 2021-05-24 18:01:07
## 10 033FBC7213DC960B classic_bike  2021-05-24 18:04:28 2021-05-24 18:36:39
## # ... with 3,759,044 more rows, and 13 more variables:
## #   start_station_name <chr>, start_station_id <chr>, end_station_name <chr>,
## #   end_station_id <chr>, start_lat <dbl>, start_lng <dbl>, end_lat <dbl>,
## #   end_lng <dbl>, member_casual <chr>, riding_time <dbl>, year_month <chr>,
## #   weekday <chr>, start_hour <chr>
…
c) Lets now check how riders ride in each hour of the day. Also, later well check how this varies per each day of the week

start_hour_df <- df %>% 
  group_by(start_hour) %>%
  summarize(count=length(ride_id),
            percentage_of_total=(length(ride_id)/nrow(df))*100,
            members_count=sum(member_casual=="member"),
            members_percent=(sum(member_casual=="member")/length(ride_id))*100,
            casual_count=sum(member_casual=="casual"),
            casual_percent=(sum(member_casual=="casual")/length(ride_id))*100) %>% 
  arrange(start_hour)
start_hour_df

## # A tibble: 24 x 7
##    start_hour  count percentage_of_t~ members_count members_percent casual_count
##    <chr>       <int>            <dbl>         <int>           <dbl>        <int>
##  1 00          48190            1.28          15927            33.1        32263
##  2 01          31594            0.840          9204            29.1        22390
##  3 02          18003            0.479          4688            26.0        13315
##  4 03          10094            0.269          2602            25.8         7492
##  5 04           8029            0.214          3290            41.0         4739
##  6 05          19738            0.525         14985            75.9         4753
##  7 06          61466            1.64          50183            81.6        11283
##  8 07         115622            3.08          94841            82.0        20781
##  9 08         145835            3.88         114625            78.6        31210
## 10 09         132874            3.53          95486            71.9        37388
## # ... with 14 more rows, and 1 more variable: casual_percent <dbl>
…
